{
  "sku": "testpl19",
  "environment": "ITest",
  "version": "1.0",
  "userName": "chandran.peethambaram@flex.com",
  "companyName": "Autotest-bixiq_1602",
  "exportedDate": "2/19/2018 9:20:52 AM",
  "name": "TestPL19",
  "description": "TestPL19 Description Windows Setup",
  "attributes": [
    {
      "name": "Bool-Attribute-1",
      "description": "Bool-Attribute-1",
      "localId": 1,
      "dataType": "Boolean",
      "groupName": "Bool-Attribute-1",
      "constraints": []
    },
    {
      "name": "Int-Attribute-2",
      "description": "Int-Attribute-2",
      "localId": 2,
      "dataType": "Int",
      "groupName": "Int-Attribute-2",
      "constraints": []
    },
    {
      "name": "Byte-Attribute-3",
      "description": "Byte-Attribute-3",
      "localId": 3,
      "dataType": "Byte",
      "groupName": "Byte-Attribute-3",
      "constraints": []
    },
    {
      "name": "Decimal-Attribute-4",
      "description": "Decimal-Attribute-4 ",
      "localId": 4,
      "dataType": "Decimal",
      "groupName": "Decimal-Attribute-4",
      "constraints": []
    },
    {
      "name": "BigInt-Attribute-5",
      "description": "BigInt-Attribute-5",
      "localId": 5,
      "dataType": "BigInt",
      "groupName": "BigInt-Attribute-5",
      "constraints": []
    },
    {
      "name": "String-Attribute-6",
      "description": "String-Attribute-6",
      "localId": 6,
      "dataType": "String",
      "groupName": "String-Attribute-6",
      "constraints": []
    },
    {
      "name": "Float-Attribute-7",
      "description": "Float-Attribute-7",
      "localId": 7,
      "dataType": "Float",
      "groupName": "Float-Attribute-7",
      "constraints": []
    },
    {
      "name": "Double-Attribute-8",
      "description": "Double-Attribute-8",
      "localId": 8,
      "dataType": "Double",
      "groupName": "Double-Attribute-8",
      "constraints": []
    },
    {
      "name": "Double-Attribute-9",
      "description": "Double-Attribute-9",
      "localId": 9,
      "dataType": "LDouble",
      "groupName": "Double-Attribute-9",
      "constraints": []
    },
    {
      "name": "Json-Attribute-10",
      "description": "Json-Attribute-10",
      "localId": 10,
      "dataType": "Json",
      "groupName": "Json-Attribute-10",
      "constraints": []
    }
  ],
  "settings": [
    {
      "name": "Bool-Setting-1",
      "groupName": "Bool-Setting-1",
      "dataType": "Boolean",
      "fId": 1,
      "defaultValue": "1",
      "constraints": [],
      "listOfPossibleValues": [],
      "formType": "Entry"
    },
    {
      "name": "Float-Setting-7",
      "groupName": "Float-Setting-7",
      "dataType": "Float",
      "fId": 7,
      "defaultValue": "7",
      "constraints": [],
      "listOfPossibleValues": [],
      "formType": "Entry"
    },
    {
      "name": "Byte-Setting-3",
      "groupName": "Byte-Setting-3",
      "dataType": "Byte",
      "fId": 3,
      "defaultValue": "3",
      "constraints": [],
      "listOfPossibleValues": [],
      "formType": "Entry"
    },
    {
      "name": "Int-Setting-2",
      "groupName": "Int-Setting-2",
      "dataType": "Int",
      "fId": 2,
      "defaultValue": "2",
      "constraints": [],
      "listOfPossibleValues": [],
      "formType": "Entry"
    },
    {
      "name": "Decimal-Setting-4",
      "groupName": "Decimal-Setting-4",
      "dataType": "Decimal",
      "fId": 4,
      "defaultValue": "4",
      "constraints": [],
      "listOfPossibleValues": [],
      "formType": "Entry"
    },
    {
      "name": "BigInt-Setting-5",
      "groupName": "BigInt-Setting-5",
      "dataType": "BigInt",
      "fId": 5,
      "defaultValue": "5",
      "constraints": [],
      "listOfPossibleValues": [],
      "formType": "Na"
    },
    {
      "name": "String-Setting-6",
      "groupName": "String-Setting-6",
      "dataType": "String",
      "fId": 6,
      "defaultValue": "6",
      "constraints": [],
      "listOfPossibleValues": [],
      "formType": "Entry"
    },
    {
      "name": "Json-Setting-10",
      "groupName": "Json-Setting-10",
      "dataType": "Json",
      "fId": 10,
      "defaultValue": null,
      "constraints": [],
      "listOfPossibleValues": [],
      "formType": "Entry"
    },
    {
      "name": "Double-Setting-8",
      "groupName": "Double-Setting-8",
      "dataType": "Double",
      "fId": 8,
      "defaultValue": "8",
      "constraints": [],
      "listOfPossibleValues": [],
      "formType": "Na"
    },
    {
      "name": "LDouble-Setting-8",
      "groupName": "LDouble-Setting-8",
      "dataType": "LDouble",
      "fId": 9,
      "defaultValue": "9",
      "constraints": [],
      "listOfPossibleValues": [],
      "formType": "Entry"
    }
  ],
  "commands": [],
  "userFields": []
}